American Brewery Study for Budweiser
…
Median ABV

In order of Highest to Lowest ABVs

med_ABV <-Meds[order(-Meds$Median_ABV),] 
med_ABV

## # A tibble: 51 x 4
##    State Median_ABV Median_IBU fips 
##    <fct>      <dbl>      <dbl> <chr>
##  1 " DC"     0.0625       47.5 11   
##  2 " KY"     0.0625       31.5 21   
##  3 " MI"     0.062        35   26   
##  4 " NM"     0.062        51   35   
##  5 " WV"     0.062        57.5 54   
##  6 " CO"     0.0605       40   08   
##  7 " AL"     0.06         43   01   
##  8 " CT"     0.06         29   09   
##  9 " NV"     0.06         41   32   
## 10 " OK"     0.06         35   40   
## # ... with 41 more rows

Median IBU

In order of Highest to Lowest IBUs

med_IBU <- Meds[order(-Meds$Median_IBU),] 
med_IBU

## # A tibble: 51 x 4
##    State Median_ABV Median_IBU fips 
##    <fct>      <dbl>      <dbl> <chr>
##  1 " ME"     0.051        61   23   
##  2 " WV"     0.062        57.5 54   
##  3 " FL"     0.057        55   12   
##  4 " GA"     0.055        55   13   
##  5 " DE"     0.055        52   10   
##  6 " NM"     0.062        51   35   
##  7 " NH"     0.055        48.5 33   
##  8 " DC"     0.0625       47.5 11   
##  9 " NY"     0.055        47   36   
## 10 " AK"     0.056        46   02   
## # ... with 41 more rows
…
